0,1000
0.23813,1132.7
0.51806,1203
0.82014,1245.7
1.1349,1274.7
1.4576,1294.2
1.7856,1306.8
2.1161,1314.7
2.4469,1319.3
2.7751,1322.1
3.0989,1323.9
3.4177,1325
3.7315,1325.6
4.0386,1326.7
4.3389,1328.4
4.6329,1330.5
4.921,1332.8
5.2025,1335.4
5.477,1338.5
5.7448,1341.7
6.0064,1345
6.2621,1348.4
6.5112,1352.2
6.7541,1356.6
6.9911,1361.2
7.2227,1365.9
7.4492,1370.7
7.6708,1375.4
7.887,1380.6
8.098,1386.2
8.3043,1392
8.5062,1397.7
8.704,1403.5
8.8978,1409.2
9.0879,1414.7
9.2741,1420.2
9.4563,1426
9.6347,1431.8
9.8097,1437.7
9.9812,1443.5
10.15,1449.2
10.315,1454.8
10.477,1460.3
10.655,1425.3
10.82,1403
10.978,1389.3
11.13,1381.1
11.277,1376.6
11.422,1374.2
11.564,1373.4
11.705,1373.4
11.844,1374.1
11.981,1375.1
12.117,1376.4
12.252,1377.9
12.385,1379.4
12.518,1380.9
12.649,1382.5
12.78,1384.3
12.909,1386.3
13.037,1388.4
13.163,1390.5
13.289,1392.7
13.414,1394.9
13.537,1397.1
13.66,1399.3
13.782,1401.5
13.903,1403.7
14.022,1405.8
14.141,1407.9
14.259,1410
14.376,1412
14.493,1414.1
14.608,1416.1
14.722,1418.1
14.836,1420
14.949,1422
15.061,1423.9
15.172,1425.8
15.282,1427.7
15.391,1429.8
15.5,1431.9
15.607,1434
15.714,1436.2
15.82,1438.4
15.925,1440.5
16.029,1442.7
16.133,1444.8
16.236,1446.9
16.338,1449
16.439,1451.1
16.54,1453.1
16.64,1455.2
16.739,1457.2
16.837,1459.1
16.935,1461.1
17.032,1463.1
17.129,1465
17.225,1466.9
17.32,1468.8
17.414,1470.6
17.508,1472.5
17.601,1474.3
17.694,1476.1
17.786,1477.9
17.877,1479.7
17.968,1481.4
18.056,1459.9
18.126,1384.1
18.175,1330.8
18.21,1303.7
18.238,1290.3
18.262,1284.5
18.283,1282
18.304,1281.2
18.324,1281.2
18.344,1281.7
18.364,1282.5
18.384,1283.3
18.403,1284.2
18.423,1285.2
18.442,1286.2
18.461,1287.1
18.481,1288.1
18.5,1289.1
18.519,1290.1
18.538,1291
18.558,1292
18.577,1293
18.596,1294
18.615,1294.9
18.634,1295.9
18.653,1296.8
18.671,1297.8
18.69,1298.7
18.709,1299.7
18.728,1300.6
18.746,1301.6
18.765,1302.5
18.783,1303.4
18.802,1304.4
18.82,1305.3
18.839,1306.2
18.857,1307.2
18.875,1308.1
18.894,1309
18.912,1309.9
18.93,1310.8
18.948,1311.7
18.966,1312.6
18.984,1313.5
19.002,1314.4
19.02,1315.3
19.038,1316.2
19.056,1317.1
19.074,1318
19.092,1318.8
19.11,1319.7
19.127,1320.6
19.145,1321.5
19.162,1322.3
19.18,1323.2
19.198,1324.1
19.215,1324.9
19.232,1325.8
19.25,1326.6
19.267,1327.5
19.285,1328.4
19.302,1329.2
19.319,1330
19.336,1330.9
19.353,1331.7
19.37,1332.6
19.387,1333.4
19.404,1334.2
19.421,1335
19.438,1335.9
19.455,1336.7
19.472,1337.5
19.489,1338.3
19.506,1339.1
19.522,1340
19.539,1340.8
19.556,1341.6
19.572,1342.4
19.589,1343.2
19.605,1344
19.622,1344.8
19.638,1345.6
19.655,1346.3
19.671,1347.1
19.687,1347.9
19.704,1348.7
19.72,1349.5
19.736,1350.2
19.752,1351
19.768,1351.8
19.784,1352.6
19.8,1353.3
19.816,1354.1
19.832,1354.9
19.848,1355.6
19.864,1356.4
19.88,1357.1
19.896,1357.9
19.912,1358.6
19.927,1359.4
19.943,1360.1
19.959,1360.9
19.974,1361.6
19.99,1362.3
20.005,1363.1
20.021,1363.8
20.036,1364.5
20.052,1384.1
20.133,1729.9
20.332,2027.1
20.637,2227.3
20.858,2585.6
21.286,2745.4
21.794,2838.9
22.335,2901.7
22.887,2950.3
23.438,2993.3
23.984,3034.4
24.527,3074.7
25.066,3117.8
25.604,3161.6
26.14,3206
26.672,3253.3
27.203,3301.7
27.731,3351.3
28.26,3401
28.788,3451.2
29.315,3501.8
29.843,3552.2
30.37,3602.4
30.897,3651.1
31.422,3698.6
31.942,3747.4
32.457,3797.3
32.968,3846.8
33.477,3895.7
33.982,3944
34.485,3991.8
34.984,4038.9
35.48,4085.3
35.972,4131.1
36.461,4176.3
36.947,4221
37.429,4265
37.908,4308.6
38.384,4351.6
38.857,4394
39.326,4435.6
39.791,4476.2
40.837,3713.9
41.452,3402.6
41.901,3268.4
42.275,3221.8
42.62,3216.6
42.956,3226.1
43.289,3240.2
43.621,3255.7
43.952,3272
44.281,3289.8
44.611,3307.9
44.939,3326.1
45.268,3344.3
45.596,3362.4
45.924,3380.7
46.251,3399.4
46.578,3418.2
46.905,3437
47.232,3455.7
47.559,3474.4
47.886,3493
48.212,3511.6
48.539,3530.6
48.865,3549.6
49.191,3568.6
49.516,3587.6
49.842,3606.4
50.167,3624.7
50.492,3642.7
50.815,3660.6
51.138,3678.4
51.46,3696.1
51.781,3713.7
52.101,3731.2
52.421,3748.7
52.739,3766
53.057,3783.2
53.374,3801.3
53.689,3819.8
54.003,3838.3
54.316,3856.8
54.629,3875.1
54.94,3893.4
55.251,3911.5
55.56,3929.6
55.869,3947.6
56.177,3965.5
56.484,3983.3
56.79,4001
57.095,4018.6
57.399,4036.1
57.702,4053.4
58.004,4070.7
58.306,4087.8
58.606,4104.9
58.905,4121.9
59.203,4138.7
59.501,4155.5
59.797,4172.2
60.092,4188.8
60.387,4205.4
60.68,4221.8
60.973,4238.2
61.264,4254.4
61.555,4270.6
61.845,4286.7
62.121,4231.3
62.266,3919.3
62.323,3699.7
62.563,3031
62.611,2805.8
62.623,2673.6
62.725,2238.2
62.753,2033.9
62.75,1943
62.739,1885.7
62.724,1844.3
62.706,1812.4
62.688,1787
62.668,1766.1
62.647,1748.7
62.626,1734.1
62.605,1721.6
62.583,1710.9
62.561,1701.6
62.539,1693.6
62.517,1686.6
62.494,1680.4
62.471,1675.1
62.449,1670.3
62.426,1666.1
62.403,1662.4
62.38,1659.1
62.357,1656.2
62.334,1653.5
62.311,1651.2
62.287,1649.1
62.264,1647.2
62.241,1645.5
62.218,1644
62.195,1642.6
62.171,1641.4
62.148,1640.2
62.125,1639.2
62.102,1638.2
62.079,1637.3
62.056,1636.5
62.032,1635.8
62.009,1635.1
61.986,1634.5
61.963,1633.9
61.94,1633.3
61.917,1632.8
61.893,1632.3
61.87,1631.8
61.847,1631.3
61.824,1630.9
61.801,1630.5
61.778,1630.1
61.755,1629.7
61.732,1629.3
61.709,1629
61.686,1628.6
61.663,1628.3
61.64,1627.9
61.617,1627.6
61.594,1627.3
61.571,1626.9
61.548,1626.6
61.526,1626.3
61.503,1626
61.48,1625.7
61.457,1625.4
61.434,1625.1
61.411,1624.8
61.389,1624.5
61.366,1624.2
61.343,1624
61.32,1623.7
61.298,1623.4
61.275,1623.1
61.252,1622.8
61.23,1622.5
61.207,1622.2
61.184,1622
61.162,1621.7
61.139,1621.4
61.117,1621.1
61.094,1620.8
61.071,1620.6
61.049,1620.3
61.026,1620
61.004,1619.7
60.981,1619.4
60.959,1619.2
60.937,1618.9
60.914,1618.6
60.892,1618.3
60.869,1618
60.847,1617.8
60.825,1617.5
60.802,1617.2
60.78,1616.9
60.758,1616.7
60.735,1616.4
60.713,1616.1
60.691,1615.8
60.669,1615.5
60.646,1615.3
60.624,1615
60.602,1614.7
60.58,1614.4
60.558,1649.9
60.542,1910.9
60.562,2101.3
60.61,2176.4
60.67,2211.7
60.734,2229.3
60.802,2238.6
60.87,2243.8
60.939,2246.9
61.008,2248.9
61.078,2250.5
61.147,2251.8
61.216,2253
61.285,2254.2
61.353,2255.3
61.422,2256.4
61.49,2257.4
61.559,2258.5
61.627,2259.6
61.695,2260.6
61.763,2261.7
61.83,2262.7
61.898,2263.8
61.965,2264.8
62.032,2265.9
62.1,2266.9
62.166,2268
62.233,2269
62.3,2270.1
62.366,2271.2
62.433,2272.4
62.499,2273.5
62.565,2274.7
62.631,2275.9
62.697,2277
62.762,2278.2
62.828,2279.3
62.893,2280.5
62.958,2281.6
63.023,2282.8
63.088,2283.9
63.153,2285.1
63.217,2286.2
63.282,2287.3
63.346,2288.4
63.41,2289.6
63.474,2290.7
63.538,2291.8
63.602,2292.9
63.666,2294
63.729,2295.1
63.793,2296.2
63.856,2297.3
63.919,2298.4
63.982,2299.5
64.045,2300.5
64.108,2301.6
64.17,2302.7
64.233,2303.7
64.295,2304.8
64.358,2305.9
64.42,2306.9
64.482,2308
64.544,2309
64.606,2310.1
64.668,2311.1
64.73,2312.2
64.791,2313.2
64.853,2314.3
64.914,2315.3
64.975,2316.3
65.036,2317.4
65.097,2318.4
65.158,2319.5
65.219,2320.7
65.28,2321.9
65.34,2323.2
65.401,2324.5
65.461,2325.7
65.522,2327
65.582,2328.3
65.642,2329.5
65.703,2330.8
65.763,2332
65.823,2333.3
65.883,2334.5
65.942,2335.8
66.002,2337
66.062,2338.3
66.121,2339.5
66.181,2340.8
66.24,2342
66.3,2343.2
66.359,2344.5
66.418,2345.7
66.477,2346.9
66.536,2348.1
66.595,2349.4
66.654,2350.6
66.713,2351.8
66.772,2353
66.831,2354.2
66.889,2355.4
66.948,2356.6
67.006,2357.8
67.064,2359
67.123,2360.2
67.181,2361.4
67.253,2500.1
67.363,2640.3
67.499,2722.1
67.523,3186.1
67.661,3379.9
67.858,3428.6
68.069,3446.5
68.282,3457
68.496,3465.9
68.71,3474.5
68.924,3483
69.137,3491.5
69.351,3499.9
69.564,3508.3
69.778,3516.8
69.991,3525.2
70.204,3533.6
70.417,3541.9
70.63,3550.3
70.842,3558.8
71.055,3567.3
71.267,3575.9
71.48,3584.5
71.692,3593.1
71.904,3601.6
72.116,3609.9
72.327,3618.1
72.538,3626.3
72.749,3634.4
72.959,3642.5
73.169,3650.6
73.379,3658.7
73.589,3666.7
73.798,3674.7
74.006,3682.7
74.215,3690.7
74.423,3698.6
74.63,3706.5
74.838,3714.4
75.044,3722.3
75.251,3730.2
75.457,3738
75.663,3745.8
75.869,3753.6
76.074,3761.3
76.279,3769.1
76.483,3776.8
76.687,3784.5
76.891,3792.2
77.095,3799.8
77.298,3807.5
77.501,3815.1
77.703,3822.7
77.905,3830.2
78.107,3838.3
78.308,3846.5
78.509,3854.7
78.709,3862.9
78.909,3871.1
79.108,3879.2
79.308,3887.3
79.507,3895.4
79.705,3903.5
79.903,3911.5
80.101,3919.6
80.298,3927.6
80.495,3935.6
80.692,3943.5
80.888,3951.5
81.084,3959.4
81.28,3967.3
81.475,3975.1
81.67,3983
81.865,3990.8
82.059,3998.6
82.252,4006.4
82.446,4014.1
82.639,4021.8
82.831,4029.4
83.024,4037.1
83.215,4044.7
83.407,4052.2
83.597,4059.8
83.788,4067.3
83.978,4074.9
84.168,4082.3
84.357,4089.8
84.546,4097.3
84.734,4104.7
84.922,4112.1
85.11,4119.4
85.297,4126.8
85.484,4134.1
85.671,4141.4
85.857,4148.7
86.042,4156
86.228,4163.2
86.413,4170.5
86.597,4177.7
86.781,4184.8
86.965,4192
87.148,4199.1
87.331,4206.2
87.513,4213.3
87.696,4220.4
87.877,4227.4
88.059,4234.5
88.239,4237.7
88.41,4219.8
88.567,4214.7
88.721,4217.9
89.079,3583
89.284,3310.9
89.427,3197
89.546,3156.6
89.657,3145
89.765,3142.6
89.872,3143.4
89.979,3145.1
90.085,3147.3
90.192,3149.6
90.298,3152
90.404,3154.3
90.51,3156.7
90.616,3159
90.722,3161.4
90.828,3163.7
90.933,3166.1
91.039,3168.4
91.144,3170.9
91.249,3173.5
91.354,3176.2
91.459,3178.9
91.563,3181.6
91.668,3184.2
91.772,3186.9
91.877,3189.6
91.981,3192.2
92.085,3194.9
92.189,3197.5
92.293,3200.1
92.397,3202.8
92.5,3205.4
92.604,3208
92.707,3210.6
92.81,3213.2
92.913,3215.8
93.016,3218.4
93.119,3221
93.221,3223.5
93.324,3226.1
93.426,3228.7
93.529,3231.3
93.631,3233.8
93.733,3236.4
93.834,3238.9
93.936,3241.5
94.038,3244
94.139,3246.6
94.241,3249.1
94.342,3251.6
94.443,3254.2
94.544,3256.7
94.645,3259.2
94.745,3261.7
94.846,3264.2
94.946,3266.7
95.046,3269.4
95.147,3272
95.247,3274.6
95.346,3277.2
95.446,3279.9
95.546,3282.5
95.646,3285.1
95.745,3287.7
95.844,3290.3
95.943,3292.9
96.043,3295.5
96.142,3298.1
96.24,3300.7
96.339,3303.3
96.438,3305.8
96.536,3308.4
96.635,3311
96.733,3313.6
96.831,3316.1
96.929,3318.7
97.027,3321.2
97.125,3323.8
97.223,3326.3
97.32,3328.9
97.418,3331.4
97.515,3333.9
97.612,3336.5
97.709,3339
97.806,3341.5
97.903,3344
98,3346.6
98.097,3349.1
98.193,3351.6
98.29,3354.1
98.386,3356.6
98.482,3359.1
98.578,3361.6
98.674,3364
98.77,3366.5
98.866,3369
98.961,3371.5
99.057,3374
99.152,3376.4
99.248,3378.9
99.343,3381.3
99.438,3383.8
99.533,3386.3
99.627,3388.8
